03_baseline_forecast
…
There were many stores closed at the end of 2014, but we knew this
already and it is in the training period. There does not appear to be an
unusual amount of store closures during the test period.

Inspect Weekly Distribution For Possible Causes Of
Overforecasting

fc %>%
  as_tibble() %>%
  left_join(as_tibble(test_ts), by = "Date") %>%
  mutate(error = Sales.y - .mean, weekday = wday(Date, label = TRUE)) %>%
  group_by(.model, weekday) %>%
  summarise(MeanError = mean(error), .groups = "drop")

## # A tibble: 21 × 3
##    .model weekday MeanError
##    <chr>  <ord>       <dbl>
##  1 arima  Sun      -153212.
##  2 arima  Mon      -616821.
##  3 arima  Tue      -350697.
##  4 arima  Wed      -313784.
##  5 arima  Thu       758649.
##  6 arima  Fri       -50965.
##  7 arima  Sat      -501672.
##  8 ets    Sun        32299.
##  9 ets    Mon      -959434.
## 10 ets    Tue      -369479.
## # ℹ 11 more rows
…
